{
    "stores": [
        {   "id": 1,
            "name": "walmart",
            "location": {"lat": 37.6192201, "lng": -96.4841245},
            "address": "121 Peter Pan Rd,Independence, KS 67301",
            "phone": "+1 620-331-5805"
        },
        {
            "id": 2,
            "name": "walmart",
            "location": {"lat": 37.0958665, "lng": -95.9044739},
            "address": "1863 Cr 5300,Coffeyville, KS 67337",
            "phone": "+1 620-251-4113"
        },
        {
            "id": 3,
            "name": "walmart",
            "location": {"lat": 36.4722169, "lng": -95.6925462},
            "address": "1500 S Lynn Riggs Blvd,Claremore, OK 74017",
            "phone": "+1 620-251-4113"
        },
        {
            "id": 4,
            "name": "walmart",
            "location": {"lat": 37.0958265, "lng": -94.89044739},
            "address": "1863 Cr 5300,Coffeyville, KS 67337",
            "phone": "+1 918-341-2765"
        },
        {
            "id": 5,
            "name": "walmart",
            "location": {"lat": 36.6732169, "lng": -95.6625462},
            "address": "4901 S Mill St,Pryor Creek, OK 74361",
            "phone": "+1 918-825-6000"
        },
        {
            "id": 6,
            "name": "walmart",
            "location": {"lat": 36.3432169, "lng": -95.8925462},
            "address": "4901 S Mill St,Pryor Creek, OK 74361",
            "phone": "+1 918-825-6000"
        }
    ]
}