{
  "files": {
    "main.css": "/static/css/main.1302d96e.css",
    "main.js": "/static/js/main.8a89105c.js",
    "static/js/787.57d4d9af.chunk.js": "/static/js/787.57d4d9af.chunk.js",
    "static/media/logo.svg": "/static/media/logo.2a1b0343d476b440da5a791e13048693.svg",
    "index.html": "/index.html",
    "static/media/pin.svg": "/static/media/pin.bfb035ad402cc5e830cd.svg",
    "main.1302d96e.css.map": "/static/css/main.1302d96e.css.map",
    "main.8a89105c.js.map": "/static/js/main.8a89105c.js.map",
    "787.57d4d9af.chunk.js.map": "/static/js/787.57d4d9af.chunk.js.map"
  },
  "entrypoints": [
    "static/css/main.1302d96e.css",
    "static/js/main.8a89105c.js"
  ]
}