<svg width="16" height="16" viewBox="0 0 16 16" fill="none" xmlns="http://www.w3.org/2000/svg">
<path d="M8 0.5C5.72266 0.5 4.36035 0.873047 3.54297 1.45215C2.72559 2.03125 2.5 2.8252 2.5 3.5C2.5 4.33301 2.89648 5.22754 3.36816 6.20312C3.79297 7.0791 4.28516 8.02051 4.64551 9H4.57031C4.30469 9 4.05957 8.86035 3.9248 8.63184L2.85938 6.8291C2.83594 6.79102 2.80273 6.75879 2.7627 6.7373C2.55957 6.45508 2.25 6.25 1.875 6.25C1.25684 6.25 0.75 6.75684 0.75 7.375C0.75 7.54785 0.81836 7.69824 0.887695 7.84375C0.887695 7.88867 0.899414 7.93262 0.921875 7.9707L0.932617 7.98828C0.932617 7.98828 0.932617 7.98926 0.933594 7.98926L2.59473 10.874C2.99609 11.5703 3.74023 12 4.54395 12H7.75V13H7.21484L4.40625 13.8018C3.87109 13.9551 3.5 14.4473 3.5 15.0039V15.5H4.53418L7.28418 14.75H8.71582L11.4658 15.5H12.5V15.0039C12.5 14.4473 12.1289 13.9551 11.5938 13.8018L8.78516 13H8.25V12H11.4561C12.2598 12 13.0039 11.5703 13.4053 10.874L15.0664 7.98926C15.0674 7.98926 15.0674 7.98828 15.0674 7.98828L15.0781 7.9707C15.1006 7.93262 15.1123 7.88867 15.1123 7.84473C15.1816 7.69922 15.25 7.54883 15.25 7.375C15.25 6.75684 14.7432 6.25 14.125 6.25C13.75 6.25 13.4395 6.45508 13.2363 6.73828C13.1973 6.75977 13.1641 6.79102 13.1406 6.8291L12.0752 8.63184C11.9404 8.86035 11.6953 9 11.4297 9H11.3545C11.7148 8.02051 12.207 7.0791 12.6318 6.20312C13.1035 5.22754 13.5 4.33301 13.5 3.5C13.5 2.8252 13.2744 2.03125 12.457 1.45215C11.6396 0.873047 10.2773 0.5 8 0.5ZM8 1C10.2227 1 11.4854 1.37695 12.168 1.86035C12.8506 2.34375 13 2.9248 13 3.5C13 4.16699 12.6465 5.02246 12.1807 5.98438C11.7393 6.89844 11.2139 7.91602 10.832 9H5.16797C4.78613 7.91602 4.26074 6.89844 3.81934 5.98438C3.35352 5.02246 3 4.16699 3 3.5C3 2.9248 3.14941 2.34375 3.83203 1.86035C4.51465 1.37695 5.77734 1 8 1ZM5.5 3.5C5.3623 3.5 5.25 3.6123 5.25 3.75C5.25 3.8877 5.3623 4 5.5 4C5.6377 4 5.75 3.8877 5.75 3.75C5.75 3.6123 5.6377 3.5 5.5 3.5ZM6.5 3.5C6.3623 3.5 6.25 3.6123 6.25 3.75C6.25 3.8877 6.3623 4 6.5 4C6.6377 4 6.75 3.8877 6.75 3.75C6.75 3.6123 6.6377 3.5 6.5 3.5ZM7.5 3.5C7.3623 3.5 7.25 3.6123 7.25 3.75C7.25 3.8877 7.3623 4 7.5 4C7.6377 4 7.75 3.8877 7.75 3.75C7.75 3.6123 7.6377 3.5 7.5 3.5ZM8.5 3.5C8.3623 3.5 8.25 3.6123 8.25 3.75C8.25 3.8877 8.3623 4 8.5 4C8.6377 4 8.75 3.8877 8.75 3.75C8.75 3.6123 8.6377 3.5 8.5 3.5ZM9.5 3.5C9.3623 3.5 9.25 3.6123 9.25 3.75C9.25 3.8877 9.3623 4 9.5 4C9.6377 4 9.75 3.8877 9.75 3.75C9.75 3.6123 9.6377 3.5 9.5 3.5ZM10.5 3.5C10.3623 3.5 10.25 3.6123 10.25 3.75C10.25 3.8877 10.3623 4 10.5 4C10.6377 4 10.75 3.8877 10.75 3.75C10.75 3.6123 10.6377 3.5 10.5 3.5ZM6 4.75C5.8623 4.75 5.75 4.8623 5.75 5C5.75 5.1377 5.8623 5.25 6 5.25C6.1377 5.25 6.25 5.1377 6.25 5C6.25 4.8623 6.1377 4.75 6 4.75ZM7 4.75C6.8623 4.75 6.75 4.8623 6.75 5C6.75 5.1377 6.8623 5.25 7 5.25C7.1377 5.25 7.25 5.1377 7.25 5C7.25 4.8623 7.1377 4.75 7 4.75ZM8 4.75C7.8623 4.75 7.75 4.8623 7.75 5C7.75 5.1377 7.8623 5.25 8 5.25C8.1377 5.25 8.25 5.1377 8.25 5C8.25 4.8623 8.1377 4.75 8 4.75ZM9 4.75C8.8623 4.75 8.75 4.8623 8.75 5C8.75 5.1377 8.8623 5.25 9 5.25C9.1377 5.25 9.25 5.1377 9.25 5C9.25 4.8623 9.1377 4.75 9 4.75ZM10 4.75C9.8623 4.75 9.75 4.8623 9.75 5C9.75 5.1377 9.8623 5.25 10 5.25C10.1377 5.25 10.25 5.1377 10.25 5C10.25 4.8623 10.1377 4.75 10 4.75ZM1.875 6.75C2.11328 6.75 2.31348 6.88281 2.4209 7.07812C2.45312 7.1377 2.50781 7.18066 2.57227 7.19922C2.63672 7.21777 2.70605 7.20898 2.76465 7.17578L2.55469 7.2959L3.49512 8.88672C3.71973 9.2666 4.12891 9.5 4.57031 9.5H11.4297C11.8711 9.5 12.2812 9.2666 12.5059 8.88672L13.4463 7.29688L13.2354 7.17578C13.2939 7.20996 13.3633 7.21777 13.4277 7.19922C13.4922 7.18066 13.5469 7.1377 13.5791 7.07812C13.6855 6.88281 13.8867 6.75 14.125 6.75C14.4727 6.75 14.75 7.02734 14.75 7.375C14.75 7.49805 14.7139 7.61133 14.6514 7.70996C14.6494 7.71289 14.6475 7.71582 14.6455 7.71875C14.6426 7.72363 14.6396 7.72852 14.6367 7.73438L14.6357 7.73633C14.6348 7.7373 14.6348 7.73828 14.6338 7.73926L12.9727 10.624C12.6592 11.166 12.082 11.5 11.4561 11.5H4.54395C3.91797 11.5 3.33984 11.166 3.02734 10.624L1.36621 7.73926C1.36523 7.73828 1.36523 7.7373 1.36426 7.73633L1.3623 7.7334V7.73242C1.3623 7.73242 1.3623 7.73242 1.3623 7.73145C1.3584 7.72461 1.35352 7.7168 1.34863 7.70996C1.28613 7.61133 1.25 7.49805 1.25 7.375C1.25 7.02734 1.52734 6.75 1.875 6.75ZM7.28516 13.5H8.71484L11.4561 14.2832C11.7773 14.375 11.9961 14.666 11.999 15H11.5342L8.78418 14.25H7.21582L4.46582 15H4.00098C4.00391 14.666 4.22266 14.375 4.54395 14.2832L7.28516 13.5Z" fill="black"/>
</svg>
