<svg width="12" height="12" viewBox="0 0 12 12" fill="none" xmlns="http://www.w3.org/2000/svg">
<path d="M11.3376 2.28635e-10H0.6576C0.482754 0.00126704 0.3155 0.0716144 0.192312 0.195701C0.0691245 0.319788 -4.59054e-06 0.487549 2.28635e-10 0.6624V11.3424C0.00126704 11.5172 0.0716144 11.6845 0.195701 11.8077C0.319788 11.9309 0.487549 12 0.6624 12H6.4104V7.3596H4.8504V5.5428H6.4104V4.2072C6.4104 2.658 7.3572 1.8072 8.7396 1.8072C9.20618 1.80521 9.6725 1.82925 10.1364 1.8792V3.504H9.1764C8.4264 3.504 8.2812 3.864 8.2812 4.386V5.5428H10.08L9.84 7.3596H8.28V12H11.3376C11.5133 12 11.6818 11.9302 11.806 11.806C11.9302 11.6818 12 11.5133 12 11.3376V0.6576C11.9987 0.482754 11.9284 0.3155 11.8043 0.192312C11.6802 0.0691245 11.5125 -4.59054e-06 11.3376 2.28635e-10V2.28635e-10Z" fill="white"/>
</svg>
