<svg width="18" height="14" viewBox="0 0 18 14" fill="none" xmlns="http://www.w3.org/2000/svg">
<path d="M8.05518 0.858398C5.00106 0.858398 2.51953 3.33992 2.51953 6.39404V9.62988C2.33418 9.53901 2.16247 9.45673 1.96338 9.35791C1.78337 9.26858 1.59463 9.23742 1.41699 9.25439C1.23936 9.27137 1.07304 9.3364 0.936523 9.44043C0.663487 9.64849 0.5 9.99262 0.5 10.375V10.625H0.543457C0.648504 11.284 1.12783 11.8904 1.78516 12.0728C4.1188 12.7212 5.96806 13.3066 9 13.3066C12.0317 13.3066 13.8809 12.7217 16.2144 12.0732C16.8718 11.8908 17.3515 11.2841 17.4565 10.625H17.5V10.375C17.5 9.99262 17.3365 9.64849 17.0635 9.44043C16.7904 9.23237 16.3966 9.17925 16.0366 9.35791C15.8368 9.45708 15.6645 9.5397 15.4785 9.63086V6.39404C15.4785 3.33992 12.9975 0.858398 9.94336 0.858398H8.05518ZM8.05518 1.3584H9.94336C12.7272 1.3584 14.9785 3.61016 14.9785 6.39404V9.87598C12.468 11.0855 11.1754 11.5083 9 11.5083C6.82405 11.5083 5.53122 11.0852 3.01953 9.875V9.25586C4.60321 9.48948 6.81272 9.63477 8.99951 9.63477C10.3107 9.63477 10.9623 9.59296 11.7144 9.45898C11.7174 9.4592 11.7205 9.45937 11.7236 9.45947C11.7899 9.45947 11.8535 9.43313 11.9004 9.38625C11.9473 9.33937 11.9736 9.27578 11.9736 9.20947C11.9736 9.14317 11.9473 9.07958 11.9004 9.0327C11.8535 8.98581 11.7899 8.95947 11.7236 8.95947C11.7124 8.95953 11.7011 8.96034 11.6899 8.96191L11.689 8.95703C10.9387 9.09498 10.3386 9.13477 8.99951 9.13477C6.80076 9.13477 4.5676 8.98482 3.01953 8.75098V6.39404C3.01953 3.61016 5.2713 1.3584 8.05518 1.3584ZM9.27197 1.98926C9.20567 1.98926 9.14208 2.0156 9.0952 2.06248C9.04831 2.10936 9.02197 2.17295 9.02197 2.23926C9.02197 2.30556 9.04831 2.36915 9.0952 2.41603C9.14208 2.46292 9.20567 2.48926 9.27197 2.48926C9.33828 2.48926 9.40187 2.46292 9.44875 2.41603C9.49563 2.36915 9.52197 2.30556 9.52197 2.23926C9.52197 2.17295 9.49563 2.10936 9.44875 2.06248C9.40187 2.0156 9.33828 1.98926 9.27197 1.98926ZM10.2607 2.06738C10.1944 2.06738 10.1308 2.09372 10.084 2.14061C10.0371 2.18749 10.0107 2.25108 10.0107 2.31738C10.0107 2.38369 10.0371 2.44728 10.084 2.49416C10.1308 2.54104 10.1944 2.56738 10.2607 2.56738C10.327 2.56738 10.3906 2.54104 10.4375 2.49416C10.4844 2.44728 10.5107 2.38369 10.5107 2.31738C10.5107 2.25108 10.4844 2.18749 10.4375 2.14061C10.3906 2.09372 10.327 2.06738 10.2607 2.06738ZM11.2222 2.34277C11.1559 2.34277 11.0923 2.36911 11.0454 2.416C10.9985 2.46288 10.9722 2.52647 10.9722 2.59277C10.9722 2.65908 10.9985 2.72267 11.0454 2.76955C11.0923 2.81643 11.1559 2.84277 11.2222 2.84277C11.2885 2.84277 11.3521 2.81643 11.3989 2.76955C11.4458 2.72267 11.4722 2.65908 11.4722 2.59277C11.4722 2.52647 11.4458 2.46288 11.3989 2.416C11.3521 2.36911 11.2885 2.34277 11.2222 2.34277ZM12.1138 2.74414C12.0475 2.74414 11.9839 2.77048 11.937 2.81736C11.8901 2.86425 11.8638 2.92784 11.8638 2.99414C11.8638 3.06044 11.8901 3.12403 11.937 3.17092C11.9839 3.2178 12.0475 3.24414 12.1138 3.24414C12.1801 3.24414 12.2437 3.2178 12.2905 3.17092C12.3374 3.12403 12.3638 3.06044 12.3638 2.99414C12.3638 2.92784 12.3374 2.86425 12.2905 2.81736C12.2437 2.77048 12.1801 2.74414 12.1138 2.74414ZM12.8584 3.41211C12.7921 3.41211 12.7285 3.43845 12.6816 3.48533C12.6347 3.53222 12.6084 3.59581 12.6084 3.66211C12.6084 3.72841 12.6347 3.792 12.6816 3.83889C12.7285 3.88577 12.7921 3.91211 12.8584 3.91211C12.9247 3.91211 12.9883 3.88577 13.0352 3.83889C13.0821 3.792 13.1084 3.72841 13.1084 3.66211C13.1084 3.59581 13.0821 3.53222 13.0352 3.48533C12.9883 3.43845 12.9247 3.41211 12.8584 3.41211ZM13.52 4.13379C13.4537 4.13379 13.3901 4.16013 13.3432 4.20701C13.2964 4.2539 13.27 4.31748 13.27 4.38379C13.27 4.45009 13.2964 4.51368 13.3432 4.56057C13.3901 4.60745 13.4537 4.63379 13.52 4.63379C13.5863 4.63379 13.6499 4.60745 13.6968 4.56057C13.7437 4.51368 13.77 4.45009 13.77 4.38379C13.77 4.31748 13.7437 4.2539 13.6968 4.20701C13.6499 4.16013 13.5863 4.13379 13.52 4.13379ZM13.8359 5.08252C13.7696 5.08252 13.706 5.10886 13.6592 5.15574C13.6123 5.20263 13.5859 5.26622 13.5859 5.33252C13.5859 5.39882 13.6123 5.46241 13.6592 5.5093C13.706 5.55618 13.7696 5.58252 13.8359 5.58252C13.9022 5.58252 13.9658 5.55618 14.0127 5.5093C14.0596 5.46241 14.0859 5.39882 14.0859 5.33252C14.0859 5.26622 14.0596 5.20263 14.0127 5.15574C13.9658 5.10886 13.9022 5.08252 13.8359 5.08252ZM14.708 8.65479C14.6417 8.65479 14.5781 8.68112 14.5312 8.72801C14.4843 8.77489 14.458 8.83848 14.458 8.90479C14.458 8.97109 14.4843 9.03468 14.5312 9.08156C14.5781 9.12845 14.6417 9.15479 14.708 9.15479C14.7743 9.15479 14.8379 9.12845 14.8848 9.08156C14.9317 9.03468 14.958 8.97109 14.958 8.90479C14.958 8.83848 14.9317 8.77489 14.8848 8.72801C14.8379 8.68112 14.7743 8.65479 14.708 8.65479ZM13.7134 8.75635C13.6471 8.75635 13.5835 8.78269 13.5366 8.82957C13.4897 8.87646 13.4634 8.94004 13.4634 9.00635C13.4634 9.07265 13.4897 9.13624 13.5366 9.18312C13.5835 9.23001 13.6471 9.25635 13.7134 9.25635C13.7797 9.25635 13.8433 9.23001 13.8902 9.18312C13.937 9.13624 13.9634 9.07265 13.9634 9.00635C13.9634 8.94004 13.937 8.87646 13.8902 8.82957C13.8433 8.78269 13.7797 8.75635 13.7134 8.75635ZM12.7183 8.85791C12.652 8.85791 12.5884 8.88425 12.5415 8.93113C12.4946 8.97802 12.4683 9.04161 12.4683 9.10791C12.4683 9.17421 12.4946 9.2378 12.5415 9.28469C12.5884 9.33157 12.652 9.35791 12.7183 9.35791C12.7846 9.35791 12.8482 9.33157 12.895 9.28469C12.9419 9.2378 12.9683 9.17421 12.9683 9.10791C12.9683 9.04161 12.9419 8.97802 12.895 8.93113C12.8482 8.88425 12.7846 8.85791 12.7183 8.85791ZM1.46289 9.74463C1.54525 9.73652 1.63684 9.75436 1.74121 9.80615C4.99977 11.4235 6.46258 12.0083 9 12.0083C11.5374 12.0083 13.0002 11.4235 16.2588 9.80615C16.4675 9.70257 16.6248 9.73482 16.7607 9.83838C16.8966 9.94194 17 10.1356 17 10.375C17 10.8641 16.5635 11.4574 16.0811 11.5913C13.7382 12.2423 11.9681 12.8066 9 12.8066C6.03194 12.8066 4.2618 12.2423 1.91895 11.5913C1.43663 11.4577 1 10.8641 1 10.375C1 10.1356 1.10336 9.94194 1.23926 9.83838C1.30721 9.7866 1.38053 9.75273 1.46289 9.74463Z" fill="black"/>
</svg>
