<svg width="18" height="16" viewBox="0 0 18 16" fill="none" xmlns="http://www.w3.org/2000/svg">
<path d="M6.93164 0.25C4.60239 0.25 2.63523 2.74043 2.55273 2.84668L2.32764 3.13574L2.6792 3.23975C2.6857 3.24175 3.31885 3.44024 3.31885 4.43799C3.31885 5.14299 3.42452 5.70217 3.47852 5.94092C3.33852 6.06867 3.25 6.2492 3.25 6.4502C3.25 6.5897 3.30324 6.76816 3.35449 6.94141C3.37524 7.01091 3.403 7.106 3.40625 7.125C3.40625 7.4635 3.68333 7.73976 4.02783 7.74951C4.13632 8.62264 4.58644 9.38904 5.25 9.90527V10.6357L4.48975 11.2935C3.9234 11.5405 3.03198 11.9379 2.25732 12.4268C1.8634 12.6754 1.50015 12.9458 1.22461 13.2432C0.949066 13.5405 0.75 13.8751 0.75 14.25V15.75H13.75V14.25C13.75 13.8751 13.5509 13.5405 13.2754 13.2432C12.9998 12.9458 12.6366 12.6754 12.2427 12.4268C11.468 11.9379 10.5766 11.5405 10.0103 11.2935L9.25 10.6357V9.90381C9.72114 9.5367 10.0853 9.04429 10.2949 8.47607C10.1254 8.44057 9.97052 8.362 9.84277 8.25C9.52427 9.16975 8.7356 9.86814 7.73535 10.0464L7.66455 10.0591L7.61133 10.1074C7.40933 10.2907 7.09142 10.2912 6.88867 10.1074L6.83545 10.0591L6.76465 10.0464C5.50215 9.82114 4.57359 8.76857 4.50684 7.48682L4.49414 7.25H4.04688C3.96937 7.25 3.90625 7.19375 3.90625 7.125C3.90625 7.047 3.88148 6.95983 3.83398 6.79883C3.80248 6.69333 3.75 6.51695 3.75 6.4502C3.75 6.35045 3.83031 6.26719 3.93506 6.25244C3.96281 6.26569 4.01877 6.29471 4.12402 6.35596L4.5 6.57568V5.76318C4.5 4.53243 5.8245 4 6.5 4C7.9135 4 8.73507 3.51404 9.03857 3.29004C9.04507 3.29329 9.05306 3.29752 9.06006 3.30127C9.08881 3.13077 9.12676 2.96354 9.17676 2.80029C9.14301 2.78579 9.11034 2.77368 9.07959 2.76318L8.93701 2.71631L8.82764 2.81836C8.82064 2.82561 8.08175 3.5 6.5 3.5C5.63025 3.5 4.008 4.16071 4 5.75146C3.9895 5.75046 3.97925 5.75 3.96875 5.75C3.96225 5.75 3.95621 5.7517 3.94971 5.75195C3.89871 5.5032 3.81836 5.02124 3.81836 4.43799C3.81836 3.56974 3.43263 3.13228 3.14062 2.92578C3.67338 2.32603 5.23564 0.75 6.93164 0.75C8.31839 0.75 8.75863 1.5771 8.77588 1.61035L8.84473 1.75H9C9.16975 1.75 9.38211 1.78494 9.59961 1.86719C9.68886 1.72194 9.78803 1.58346 9.89453 1.44971C9.64053 1.33621 9.38058 1.27312 9.14258 1.25537C8.93483 0.953121 8.30414 0.25 6.93164 0.25ZM13.5 0.5C11.4432 0.5 9.75 2.03782 9.75 3.95605C9.75 4.93007 10.1953 5.86497 10.8999 6.50586C10.6745 7.01012 10.3472 7.30176 10.3472 7.30176C10.3057 7.33361 10.2753 7.37764 10.2602 7.42767C10.2451 7.47769 10.246 7.5312 10.2629 7.58066C10.2798 7.63013 10.3117 7.67306 10.3542 7.70343C10.3968 7.73381 10.4477 7.75009 10.5 7.75C11.0608 7.75 11.6792 7.55434 12.2056 7.27783C12.6101 7.41576 13.0435 7.5 13.5 7.5C15.5643 7.5 17.25 5.87429 17.25 3.95605C17.25 2.03782 15.5568 0.5 13.5 0.5ZM13.5 1C15.3092 1 16.75 2.33279 16.75 3.95605C16.75 5.57932 15.3017 7 13.5 7C13.0664 7 12.6543 6.92105 12.2759 6.78076C12.2419 6.76824 12.2056 6.76323 12.1696 6.7661C12.1335 6.76897 12.0985 6.77963 12.0669 6.79736C11.7712 6.96301 11.4283 7.07607 11.0913 7.1543C11.2157 6.97847 11.3478 6.81259 11.4429 6.54736C11.4604 6.49825 11.4622 6.44488 11.448 6.3947C11.4337 6.34453 11.4041 6.30008 11.3633 6.26758C10.6873 5.72934 10.25 4.84191 10.25 3.95605C10.25 2.33279 11.6908 1 13.5 1ZM12.25 3.75C12.1837 3.75 12.1201 3.77634 12.0732 3.82322C12.0263 3.87011 12 3.9337 12 4C12 4.0663 12.0263 4.12989 12.0732 4.17678C12.1201 4.22366 12.1837 4.25 12.25 4.25C12.3163 4.25 12.3799 4.22366 12.4268 4.17678C12.4737 4.12989 12.5 4.0663 12.5 4C12.5 3.9337 12.4737 3.87011 12.4268 3.82322C12.3799 3.77634 12.3163 3.75 12.25 3.75ZM13.5 3.75C13.4337 3.75 13.3701 3.77634 13.3232 3.82322C13.2763 3.87011 13.25 3.9337 13.25 4C13.25 4.0663 13.2763 4.12989 13.3232 4.17678C13.3701 4.22366 13.4337 4.25 13.5 4.25C13.5663 4.25 13.6299 4.22366 13.6768 4.17678C13.7237 4.12989 13.75 4.0663 13.75 4C13.75 3.9337 13.7237 3.87011 13.6768 3.82322C13.6299 3.77634 13.5663 3.75 13.5 3.75ZM14.75 3.75C14.6837 3.75 14.6201 3.77634 14.5732 3.82322C14.5263 3.87011 14.5 3.9337 14.5 4C14.5 4.0663 14.5263 4.12989 14.5732 4.17678C14.6201 4.22366 14.6837 4.25 14.75 4.25C14.8163 4.25 14.8799 4.22366 14.9268 4.17678C14.9737 4.12989 15 4.0663 15 4C15 3.9337 14.9737 3.87011 14.9268 3.82322C14.8799 3.77634 14.8163 3.75 14.75 3.75ZM5.875 6.25C5.77554 6.25 5.68016 6.28951 5.60984 6.35983C5.53951 6.43016 5.5 6.52554 5.5 6.625C5.5 6.72446 5.53951 6.81984 5.60984 6.89017C5.68016 6.96049 5.77554 7 5.875 7C5.97446 7 6.06984 6.96049 6.14016 6.89017C6.21049 6.81984 6.25 6.72446 6.25 6.625C6.25 6.52554 6.21049 6.43016 6.14016 6.35983C6.06984 6.28951 5.97446 6.25 5.875 6.25ZM8.625 6.25C8.52554 6.25 8.43016 6.28951 8.35983 6.35983C8.28951 6.43016 8.25 6.52554 8.25 6.625C8.25 6.72446 8.28951 6.81984 8.35983 6.89017C8.43016 6.96049 8.52554 7 8.625 7C8.72446 7 8.81984 6.96049 8.89017 6.89017C8.96049 6.81984 9 6.72446 9 6.625C9 6.52554 8.96049 6.43016 8.89017 6.35983C8.81984 6.28951 8.72446 6.25 8.625 6.25ZM5.75 10.2231C6.01601 10.3606 6.3033 10.4649 6.60938 10.5259C6.79338 10.6709 7.01825 10.75 7.25 10.75C7.48175 10.75 7.70639 10.6709 7.89014 10.5259C8.19618 10.4649 8.48411 10.3611 8.75 10.2236V10.8525C8.65287 10.9848 8.51832 11.1564 8.35645 11.3291C8.02384 11.6839 7.58542 12 7.25 12C6.91458 12 6.47616 11.6839 6.14355 11.3291C5.98168 11.1564 5.84713 10.9848 5.75 10.8525V10.2231ZM5.37646 11.187C5.48082 11.3272 5.61453 11.4962 5.77832 11.6709C5.96682 11.872 6.19051 12.0798 6.44238 12.2383L5.50244 12.8647L5.01367 11.501L5.37646 11.187ZM9.12354 11.187L9.58203 11.5835L9.12256 12.8647L8.12305 12.1982C8.34831 12.0453 8.54942 11.8546 8.72168 11.6709C8.88547 11.4962 9.01918 11.3272 9.12354 11.187ZM4.58838 11.7964L5.24756 13.6353L6.75293 12.6318L6.93555 13.0889L6.76904 15.25H1.25V14.25C1.25 14.0594 1.36343 13.8294 1.5918 13.583C1.82016 13.3366 2.15223 13.0842 2.52393 12.8496C3.21395 12.4142 4.02549 12.0435 4.58838 11.7964ZM10.0195 11.8442C10.5764 12.0908 11.3282 12.4407 11.9761 12.8496C12.3478 13.0842 12.6798 13.3366 12.9082 13.583C13.1366 13.8294 13.25 14.0594 13.25 14.25V15.25H7.73096L7.56445 13.0889L7.77344 12.5659L9.37744 13.6353L10.0195 11.8442ZM2 14.25C1.9337 14.25 1.87011 14.2763 1.82322 14.3232C1.77634 14.3701 1.75 14.4337 1.75 14.5C1.75 14.5663 1.77634 14.6299 1.82322 14.6768C1.87011 14.7237 1.9337 14.75 2 14.75C2.0663 14.75 2.12989 14.7237 2.17678 14.6768C2.22366 14.6299 2.25 14.5663 2.25 14.5C2.25 14.4337 2.22366 14.3701 2.17678 14.3232C2.12989 14.2763 2.0663 14.25 2 14.25ZM3 14.25C2.9337 14.25 2.87011 14.2763 2.82322 14.3232C2.77634 14.3701 2.75 14.4337 2.75 14.5C2.75 14.5663 2.77634 14.6299 2.82322 14.6768C2.87011 14.7237 2.9337 14.75 3 14.75C3.0663 14.75 3.12989 14.7237 3.17678 14.6768C3.22366 14.6299 3.25 14.5663 3.25 14.5C3.25 14.4337 3.22366 14.3701 3.17678 14.3232C3.12989 14.2763 3.0663 14.25 3 14.25ZM4 14.25C3.9337 14.25 3.87011 14.2763 3.82322 14.3232C3.77634 14.3701 3.75 14.4337 3.75 14.5C3.75 14.5663 3.77634 14.6299 3.82322 14.6768C3.87011 14.7237 3.9337 14.75 4 14.75C4.0663 14.75 4.12989 14.7237 4.17678 14.6768C4.22366 14.6299 4.25 14.5663 4.25 14.5C4.25 14.4337 4.22366 14.3701 4.17678 14.3232C4.12989 14.2763 4.0663 14.25 4 14.25ZM5 14.25C4.9337 14.25 4.87011 14.2763 4.82322 14.3232C4.77634 14.3701 4.75 14.4337 4.75 14.5C4.75 14.5663 4.77634 14.6299 4.82322 14.6768C4.87011 14.7237 4.9337 14.75 5 14.75C5.0663 14.75 5.12989 14.7237 5.17678 14.6768C5.22366 14.6299 5.25 14.5663 5.25 14.5C5.25 14.4337 5.22366 14.3701 5.17678 14.3232C5.12989 14.2763 5.0663 14.25 5 14.25ZM6 14.25C5.9337 14.25 5.87011 14.2763 5.82322 14.3232C5.77634 14.3701 5.75 14.4337 5.75 14.5C5.75 14.5663 5.77634 14.6299 5.82322 14.6768C5.87011 14.7237 5.9337 14.75 6 14.75C6.0663 14.75 6.12989 14.7237 6.17678 14.6768C6.22366 14.6299 6.25 14.5663 6.25 14.5C6.25 14.4337 6.22366 14.3701 6.17678 14.3232C6.12989 14.2763 6.0663 14.25 6 14.25ZM8.5 14.25C8.4337 14.25 8.37011 14.2763 8.32322 14.3232C8.27634 14.3701 8.25 14.4337 8.25 14.5C8.25 14.5663 8.27634 14.6299 8.32322 14.6768C8.37011 14.7237 8.4337 14.75 8.5 14.75C8.5663 14.75 8.62989 14.7237 8.67678 14.6768C8.72366 14.6299 8.75 14.5663 8.75 14.5C8.75 14.4337 8.72366 14.3701 8.67678 14.3232C8.62989 14.2763 8.5663 14.25 8.5 14.25ZM9.5 14.25C9.4337 14.25 9.37011 14.2763 9.32322 14.3232C9.27634 14.3701 9.25 14.4337 9.25 14.5C9.25 14.5663 9.27634 14.6299 9.32322 14.6768C9.37011 14.7237 9.4337 14.75 9.5 14.75C9.5663 14.75 9.62989 14.7237 9.67678 14.6768C9.72366 14.6299 9.75 14.5663 9.75 14.5C9.75 14.4337 9.72366 14.3701 9.67678 14.3232C9.62989 14.2763 9.5663 14.25 9.5 14.25ZM10.5 14.25C10.4337 14.25 10.3701 14.2763 10.3232 14.3232C10.2763 14.3701 10.25 14.4337 10.25 14.5C10.25 14.5663 10.2763 14.6299 10.3232 14.6768C10.3701 14.7237 10.4337 14.75 10.5 14.75C10.5663 14.75 10.6299 14.7237 10.6768 14.6768C10.7237 14.6299 10.75 14.5663 10.75 14.5C10.75 14.4337 10.7237 14.3701 10.6768 14.3232C10.6299 14.2763 10.5663 14.25 10.5 14.25ZM11.5 14.25C11.4337 14.25 11.3701 14.2763 11.3232 14.3232C11.2763 14.3701 11.25 14.4337 11.25 14.5C11.25 14.5663 11.2763 14.6299 11.3232 14.6768C11.3701 14.7237 11.4337 14.75 11.5 14.75C11.5663 14.75 11.6299 14.7237 11.6768 14.6768C11.7237 14.6299 11.75 14.5663 11.75 14.5C11.75 14.4337 11.7237 14.3701 11.6768 14.3232C11.6299 14.2763 11.5663 14.25 11.5 14.25ZM12.5 14.25C12.4337 14.25 12.3701 14.2763 12.3232 14.3232C12.2763 14.3701 12.25 14.4337 12.25 14.5C12.25 14.5663 12.2763 14.6299 12.3232 14.6768C12.3701 14.7237 12.4337 14.75 12.5 14.75C12.5663 14.75 12.6299 14.7237 12.6768 14.6768C12.7237 14.6299 12.75 14.5663 12.75 14.5C12.75 14.4337 12.7237 14.3701 12.6768 14.3232C12.6299 14.2763 12.5663 14.25 12.5 14.25Z" fill="black"/>
</svg>
