<svg width="14" height="16" viewBox="0 0 14 16" fill="none" xmlns="http://www.w3.org/2000/svg">
<path d="M5.85254 0.25C5.41038 0.25 4.99991 0.484273 4.77539 0.865235L4.37207 1.5498L3.21191 1.73438C2.99601 1.49527 2.69429 1.33262 2.34717 1.38623L1.59717 1.50244C1.11149 1.57752 0.75 1.99921 0.75 2.49072V8.75C0.75 9.29933 1.20067 9.75 1.75 9.75H4.54688C4.51849 9.82872 4.5 9.91204 4.5 10C4.5 10.4112 4.83876 10.75 5.25 10.75H5.35059C5.45589 11.0951 5.66144 11.3953 5.93213 11.6162L3.53906 15.3657C3.52142 15.3934 3.5094 15.4243 3.5037 15.4567C3.498 15.489 3.49873 15.5222 3.50585 15.5542C3.51296 15.5863 3.52632 15.6166 3.54517 15.6435C3.56401 15.6704 3.58797 15.6934 3.61568 15.711C3.64339 15.7286 3.6743 15.7406 3.70664 15.7463C3.73899 15.752 3.77214 15.7513 3.8042 15.7442C3.83626 15.737 3.86661 15.7237 3.8935 15.7048C3.92039 15.686 3.94331 15.662 3.96094 15.6343L6.36328 11.8706C6.48598 11.9209 6.61441 11.9589 6.75 11.979V15.5C6.74953 15.5331 6.75565 15.566 6.76801 15.5968C6.78036 15.6275 6.7987 15.6555 6.82196 15.6791C6.84522 15.7027 6.87294 15.7214 6.9035 15.7342C6.93407 15.747 6.96687 15.7536 7 15.7536C7.03313 15.7536 7.06593 15.747 7.0965 15.7342C7.12706 15.7214 7.15478 15.7027 7.17804 15.6791C7.2013 15.6555 7.21964 15.6275 7.23199 15.5968C7.24435 15.566 7.25047 15.5331 7.25 15.5V11.979C7.38559 11.9589 7.51402 11.9209 7.63672 11.8706L10.0391 15.6343C10.0567 15.662 10.0796 15.686 10.1065 15.7048C10.1334 15.7237 10.1637 15.737 10.1958 15.7442C10.2279 15.7513 10.261 15.752 10.2934 15.7463C10.3257 15.7406 10.3566 15.7286 10.3843 15.711C10.412 15.6934 10.436 15.6704 10.4548 15.6435C10.4737 15.6166 10.487 15.5863 10.4942 15.5542C10.5013 15.5222 10.502 15.489 10.4963 15.4567C10.4906 15.4243 10.4786 15.3934 10.4609 15.3657L8.06787 11.6162C8.33856 11.3953 8.54411 11.0951 8.64941 10.75H8.75C9.16124 10.75 9.5 10.4112 9.5 10C9.5 9.91204 9.48151 9.82872 9.45312 9.75H12.25C12.7993 9.75 13.25 9.29933 13.25 8.75V2.66699C13.25 2.17442 12.8866 1.75195 12.3994 1.67822L11.9668 1.61279C11.8914 1.42809 11.7599 1.27025 11.5508 1.23535L10.8018 1.11035H10.8013C10.5816 1.07378 10.3991 1.19158 10.2686 1.35596L9.5708 1.25H9.45068L9.22412 0.865235C8.99966 0.484361 8.58981 0.25 8.14746 0.25H5.85254ZM5.85254 0.75H8.14746C8.41361 0.75 8.65842 0.890014 8.79346 1.11914L9.16504 1.75H9.53271L10.5601 1.90576L10.6108 1.67773C10.6225 1.62524 10.6657 1.59463 10.7188 1.60352H10.7192L11.4683 1.72852C11.5179 1.73681 11.5473 1.77545 11.5449 1.82812L11.5347 2.05322L12.3247 2.17236C12.571 2.20963 12.75 2.41807 12.75 2.66699V8.75C12.75 9.02917 12.5292 9.25 12.25 9.25H8.75H5.25H3.5C3.5 9.1837 3.47366 9.12011 3.42678 9.07322C3.37989 9.02634 3.3163 9 3.25 9C3.1837 9 3.12011 9.02634 3.07322 9.07322C3.02634 9.12011 3 9.1837 3 9.25H1.75C1.47083 9.25 1.25 9.02917 1.25 8.75V2.49072C1.25 2.24223 1.42802 2.0345 1.67334 1.99658L2.42334 1.88037C2.63722 1.84734 2.82784 1.95307 2.92871 2.125L3 2.24658C2.99999 2.24772 2.99999 2.24886 3 2.25C3 2.3163 3.02634 2.37989 3.07322 2.42678C3.12011 2.47366 3.1837 2.5 3.25 2.5C3.3163 2.5 3.37989 2.47366 3.42678 2.42678C3.47366 2.37989 3.5 2.3163 3.5 2.25C3.49999 2.23194 3.49803 2.21393 3.49414 2.19629L4.68311 2.00684L5.20654 1.11914C5.34153 0.890102 5.5867 0.75 5.85254 0.75ZM7.25 2.75C5.73418 2.75 4.5 3.98418 4.5 5.5C4.5 7.01582 5.73418 8.25 7.25 8.25C8.42041 8.25 9.4203 7.51309 9.81641 6.47998C9.87569 6.49169 9.93652 6.5 10 6.5C10.5493 6.5 11 6.04933 11 5.5C11 4.95067 10.5493 4.5 10 4.5C9.93652 4.5 9.87569 4.50831 9.81641 4.52002C9.4203 3.48691 8.42041 2.75 7.25 2.75ZM3.25 3C3.1837 3 3.12011 3.02634 3.07322 3.07322C3.02634 3.12011 3 3.1837 3 3.25C3 3.3163 3.02634 3.37989 3.07322 3.42678C3.12011 3.47366 3.1837 3.5 3.25 3.5C3.3163 3.5 3.37989 3.47366 3.42678 3.42678C3.47366 3.37989 3.5 3.3163 3.5 3.25C3.5 3.1837 3.47366 3.12011 3.42678 3.07322C3.37989 3.02634 3.3163 3 3.25 3ZM7.25 3.25C8.4956 3.25 9.5 4.2544 9.5 5.5C9.5 6.7456 8.4956 7.75 7.25 7.75C6.0044 7.75 5 6.7456 5 5.5C5 4.2544 6.0044 3.25 7.25 3.25ZM11.5 3.25C11.4337 3.25 11.3701 3.27634 11.3232 3.32322C11.2763 3.37011 11.25 3.4337 11.25 3.5C11.25 3.5663 11.2763 3.62989 11.3232 3.67678C11.3701 3.72366 11.4337 3.75 11.5 3.75C11.5663 3.75 11.6299 3.72366 11.6768 3.67678C11.7237 3.62989 11.75 3.5663 11.75 3.5C11.75 3.4337 11.7237 3.37011 11.6768 3.32322C11.6299 3.27634 11.5663 3.25 11.5 3.25ZM3.25 4C3.1837 4 3.12011 4.02634 3.07322 4.07322C3.02634 4.12011 3 4.1837 3 4.25C3 4.3163 3.02634 4.37989 3.07322 4.42678C3.12011 4.47366 3.1837 4.5 3.25 4.5C3.3163 4.5 3.37989 4.47366 3.42678 4.42678C3.47366 4.37989 3.5 4.3163 3.5 4.25C3.5 4.1837 3.47366 4.12011 3.42678 4.07322C3.37989 4.02634 3.3163 4 3.25 4ZM3.25 5C3.1837 5 3.12011 5.02634 3.07322 5.07322C3.02634 5.12011 3 5.1837 3 5.25C3 5.3163 3.02634 5.37989 3.07322 5.42678C3.12011 5.47366 3.1837 5.5 3.25 5.5C3.3163 5.5 3.37989 5.47366 3.42678 5.42678C3.47366 5.37989 3.5 5.3163 3.5 5.25C3.5 5.1837 3.47366 5.12011 3.42678 5.07322C3.37989 5.02634 3.3163 5 3.25 5ZM10 5C10.2792 5 10.5 5.22083 10.5 5.5C10.5 5.77917 10.2792 6 10 6C9.98393 6 9.96882 5.99529 9.95312 5.99365C9.98241 5.83319 10 5.66876 10 5.5C10 5.33124 9.98241 5.16681 9.95312 5.00635C9.96882 5.00471 9.98393 5 10 5ZM3.25 6C3.1837 6 3.12011 6.02634 3.07322 6.07322C3.02634 6.12011 3 6.1837 3 6.25C3 6.3163 3.02634 6.37989 3.07322 6.42678C3.12011 6.47366 3.1837 6.5 3.25 6.5C3.3163 6.5 3.37989 6.47366 3.42678 6.42678C3.47366 6.37989 3.5 6.3163 3.5 6.25C3.5 6.1837 3.47366 6.12011 3.42678 6.07322C3.37989 6.02634 3.3163 6 3.25 6ZM3.25 7C3.1837 7 3.12011 7.02634 3.07322 7.07322C3.02634 7.12011 3 7.1837 3 7.25C3 7.3163 3.02634 7.37989 3.07322 7.42678C3.12011 7.47366 3.1837 7.5 3.25 7.5C3.3163 7.5 3.37989 7.47366 3.42678 7.42678C3.47366 7.37989 3.5 7.3163 3.5 7.25C3.5 7.1837 3.47366 7.12011 3.42678 7.07322C3.37989 7.02634 3.3163 7 3.25 7ZM3.25 8C3.1837 8 3.12011 8.02634 3.07322 8.07322C3.02634 8.12011 3 8.1837 3 8.25C3 8.3163 3.02634 8.37989 3.07322 8.42678C3.12011 8.47366 3.1837 8.5 3.25 8.5C3.3163 8.5 3.37989 8.47366 3.42678 8.42678C3.47366 8.37989 3.5 8.3163 3.5 8.25C3.5 8.1837 3.47366 8.12011 3.42678 8.07322C3.37989 8.02634 3.3163 8 3.25 8ZM5.25 9.75H8.75C8.89126 9.75 9 9.85874 9 10C9 10.1413 8.89126 10.25 8.75 10.25H8.26611L8.23096 10.4585C8.13285 11.042 7.63425 11.4867 7.02344 11.498C7.01436 11.4971 7.00523 11.4966 6.99609 11.4966C6.98925 11.4966 6.98241 11.497 6.97559 11.4976C6.36525 11.4857 5.86709 11.0416 5.76904 10.4585L5.73389 10.25H5.25C5.10874 10.25 5 10.1413 5 10C5 9.85874 5.10874 9.75 5.25 9.75ZM6.5 10.25C6.4337 10.25 6.37011 10.2763 6.32322 10.3232C6.27634 10.3701 6.25 10.4337 6.25 10.5C6.25 10.5663 6.27634 10.6299 6.32322 10.6768C6.37011 10.7237 6.4337 10.75 6.5 10.75C6.5663 10.75 6.62989 10.7237 6.67678 10.6768C6.72366 10.6299 6.75 10.5663 6.75 10.5C6.75 10.4337 6.72366 10.3701 6.67678 10.3232C6.62989 10.2763 6.5663 10.25 6.5 10.25ZM7.5 10.25C7.4337 10.25 7.37011 10.2763 7.32322 10.3232C7.27634 10.3701 7.25 10.4337 7.25 10.5C7.25 10.5663 7.27634 10.6299 7.32322 10.6768C7.37011 10.7237 7.4337 10.75 7.5 10.75C7.5663 10.75 7.62989 10.7237 7.67678 10.6768C7.72366 10.6299 7.75 10.5663 7.75 10.5C7.75 10.4337 7.72366 10.3701 7.67678 10.3232C7.62989 10.2763 7.5663 10.25 7.5 10.25Z" fill="black"/>
</svg>
