<svg width="20" height="17" viewBox="0 0 20 17" fill="none" xmlns="http://www.w3.org/2000/svg">
<path d="M1.66683 0.666748C1.20683 0.666748 0.833496 1.04008 0.833496 1.50008V9.83342C0.833496 10.2934 1.20683 10.6667 1.66683 10.6667H3.3335C3.7935 10.6667 4.16683 10.2934 4.16683 9.83342V1.50008C4.16683 1.04008 3.7935 0.666748 3.3335 0.666748H1.66683ZM7.50016 0.666748C6.57933 0.666748 5.8335 1.41258 5.8335 2.33341V10.6602C5.8335 11.1019 6.00848 11.5245 6.32015 11.837L10.9279 16.4545C11.4137 16.9412 12.2006 16.9443 12.6906 16.4626C12.9964 16.1618 13.1273 15.7238 13.0356 15.3038L12.2072 11.5001H17.5002C18.421 11.5001 19.1668 10.7542 19.1668 9.83342V8.16838C19.1668 7.94254 19.1209 7.71832 19.0317 7.51082L16.5252 1.67586C16.2627 1.06336 15.6595 0.666748 14.9937 0.666748H7.50016Z" fill="black"/>
</svg>
